{"componentChunkName":"component---node-modules-gatsby-theme-buzzing-src-gatsby-theme-timeline-templates-posts-query-js","path":"/en/tags/tweet/page/32","result":{"data":{"site":{"siteMetadata":{"title":"国外股市热门","description":"用中文浏览国外股票社区里的热门讨论","social":[{"name":"Reddit Stocks","url":"https://www.reddit.com/r/stocks","external":true,"prefetch":null},{"name":"Reddit Investing","url":"https://www.reddit.com/r/investing","external":true,"prefetch":null},{"name":"Charlie Bilello's twitter","url":"https://twitter.com/charliebilello","external":true,"prefetch":null},{"name":"Buzzing","url":"https://www.buzzing.cc/","external":true,"prefetch":null}],"menuLinks":[{"name":"每周精选","url":"/issues","external":null,"prefetch":null}],"localize":[{"locale":"en","title":"Buzzing on Stocks","description":"See popular discussions in foreign stock communities in your native language","social":[{"name":"Reddit","url":"https://www.reddit.com/","external":true,"prefetch":null}],"menuLinks":[{"name":"Weekly Selection","url":"/en/issues","external":null,"prefetch":null}]},{"locale":"zh-Hant","title":"國外股市熱門","description":"用中文瀏覽國外股票社區裡的熱門討論","social":null,"menuLinks":[{"name":"每週精選","url":"/zh-Hant/issues","external":null,"prefetch":null}]}]}},"tagsGroup":{"group":[{"fieldValue":"Bitcoin","totalCount":4},{"fieldValue":"SaveAMC","totalCount":1},{"fieldValue":"bitcoin","totalCount":3},{"fieldValue":"investing","totalCount":768},{"fieldValue":"reddit","totalCount":4647},{"fieldValue":"science","totalCount":1},{"fieldValue":"stocks","totalCount":1509},{"fieldValue":"tweet","totalCount":779},{"fieldValue":"wallstreetbets","totalCount":2370}]},"allBlogPost":{"nodes":[{"__typename":"SocialMediaPost","id":"TweetPost-1328881123754201090","excerpt":"","slug":"/tweet/1328881123754201090","title":"Are you kidding me? https://t.co/uTBhmrzODU","date":"November 18, 2020","dateISO":"2020-11-18T02:02:03.000Z","datetime":"2020-11-18 02:02","tags":["tweet"],"image":null,"imageAlt":"Tweet Image","provider":"Twitter","thirdPartyId":"1328881123754201090","url":"https://twitter.com/michaelbatnick/statuses/1328881123754201090","originalUrl":null,"imageRemote":"https://pbs.twimg.com/media/EnEiRkAWMAc_S9n.jpg","video":null,"channel":null,"channelUrl":null,"author":"Michael Batnick","authorUrl":"https://twitter.com/michaelbatnick","authorImage":{"childImageSharp":{"fixed":{"base64":"data:image/jpeg;base64,/9j/2wBDABALDA4MChAODQ4SERATGCgaGBYWGDEjJR0oOjM9PDkzODdASFxOQERXRTc4UG1RV19iZ2hnPk1xeXBkeFxlZ2P/2wBDARESEhgVGC8aGi9jQjhCY2NjY2NjY2NjY2NjY2NjY2NjY2NjY2NjY2NjY2NjY2NjY2NjY2NjY2NjY2NjY2NjY2P/wgARCAAUABQDASIAAhEBAxEB/8QAGAABAAMBAAAAAAAAAAAAAAAAAAEDBAL/xAAUAQEAAAAAAAAAAAAAAAAAAAAA/9oADAMBAAIQAxAAAAGNuWoucjACsH//xAAbEAADAAIDAAAAAAAAAAAAAAABAgMAIhAREv/aAAgBAQABBQI43FvEgtVVQe8fa1EUKh1//8QAFBEBAAAAAAAAAAAAAAAAAAAAIP/aAAgBAwEBPwEf/8QAFBEBAAAAAAAAAAAAAAAAAAAAIP/aAAgBAgEBPwEf/8QAGxAAAQUBAQAAAAAAAAAAAAAAEQABAhAhUVL/2gAIAQEABj8CWU2yco+q3oUg1f/EAB0QAQADAAIDAQAAAAAAAAAAAAEAESFBURAxgZH/2gAIAQEAAT8hqFWfkA9gzxqmcCpYy67gCxnobK/EQKEcnIBn/9oADAMBAAIAAwAAABAjDzz/xAAUEQEAAAAAAAAAAAAAAAAAAAAg/9oACAEDAQE/EB//xAAUEQEAAAAAAAAAAAAAAAAAAAAg/9oACAECAQE/EB//xAAeEAEAAgEEAwAAAAAAAAAAAAABABEhMUFRcWGx0f/aAAgBAQABPxAkoWVv9SyUZBHR4iZe46GJRPiOawaMqNVepRGj5iT2APBqoT0DBcZjuQDQpP/Z","width":48,"height":48,"src":"/static/306bb4ace8827b52461381b81e1a5577/ffcc9/rNWwlpQL.jpg","srcSet":"/static/306bb4ace8827b52461381b81e1a5577/ffcc9/rNWwlpQL.jpg 1x,\n/static/306bb4ace8827b52461381b81e1a5577/3e51d/rNWwlpQL.jpg 1.5x,\n/static/306bb4ace8827b52461381b81e1a5577/eee8e/rNWwlpQL.jpg 2x"}}},"authorSlug":"michaelbatnick","score":896,"views":null,"sharedCount":64,"likeCount":768,"sharedContent":null,"parent":{"__typename":"TweetJson","localize":[{"locale":"zh","full_text":"你在开我的玩笑吗？https://t.co/uTBhmrzODU","quoted_status_full_text":null,"retweeted_status_full_text":null},{"locale":"zh-Hant","full_text":"你在開我的玩笑嗎？https://t.co/uTBhmrzODU","quoted_status_full_text":null,"retweeted_status_full_text":null}]}},{"__typename":"SocialMediaPost","id":"TweetPost-1328472534178738182","excerpt":"","slug":"/tweet/1328472534178738182","title":"Wut https://t.co/WSn3u179pS","date":"November 16, 2020","dateISO":"2020-11-16T22:58:28.000Z","datetime":"2020-11-16 22:58","tags":["tweet"],"image":null,"imageAlt":"Tweet Image","provider":"Twitter","thirdPartyId":"1328472534178738182","url":"https://twitter.com/michaelbatnick/statuses/1328472534178738182","originalUrl":null,"imageRemote":"https://pbs.twimg.com/media/Em-uWtoWMAIXCFz.jpg","video":null,"channel":null,"channelUrl":null,"author":"Michael Batnick","authorUrl":"https://twitter.com/michaelbatnick","authorImage":{"childImageSharp":{"fixed":{"base64":"data:image/jpeg;base64,/9j/2wBDABALDA4MChAODQ4SERATGCgaGBYWGDEjJR0oOjM9PDkzODdASFxOQERXRTc4UG1RV19iZ2hnPk1xeXBkeFxlZ2P/2wBDARESEhgVGC8aGi9jQjhCY2NjY2NjY2NjY2NjY2NjY2NjY2NjY2NjY2NjY2NjY2NjY2NjY2NjY2NjY2NjY2NjY2P/wgARCAAUABQDASIAAhEBAxEB/8QAGAABAAMBAAAAAAAAAAAAAAAAAAEDBAL/xAAUAQEAAAAAAAAAAAAAAAAAAAAA/9oADAMBAAIQAxAAAAGNuWoucjACsH//xAAbEAADAAIDAAAAAAAAAAAAAAABAgMAIhAREv/aAAgBAQABBQI43FvEgtVVQe8fa1EUKh1//8QAFBEBAAAAAAAAAAAAAAAAAAAAIP/aAAgBAwEBPwEf/8QAFBEBAAAAAAAAAAAAAAAAAAAAIP/aAAgBAgEBPwEf/8QAGxAAAQUBAQAAAAAAAAAAAAAAEQABAhAhUVL/2gAIAQEABj8CWU2yco+q3oUg1f/EAB0QAQADAAIDAQAAAAAAAAAAAAEAESFBURAxgZH/2gAIAQEAAT8hqFWfkA9gzxqmcCpYy67gCxnobK/EQKEcnIBn/9oADAMBAAIAAwAAABAjDzz/xAAUEQEAAAAAAAAAAAAAAAAAAAAg/9oACAEDAQE/EB//xAAUEQEAAAAAAAAAAAAAAAAAAAAg/9oACAECAQE/EB//xAAeEAEAAgEEAwAAAAAAAAAAAAABABEhMUFRcWGx0f/aAAgBAQABPxAkoWVv9SyUZBHR4iZe46GJRPiOawaMqNVepRGj5iT2APBqoT0DBcZjuQDQpP/Z","width":48,"height":48,"src":"/static/306bb4ace8827b52461381b81e1a5577/ffcc9/rNWwlpQL.jpg","srcSet":"/static/306bb4ace8827b52461381b81e1a5577/ffcc9/rNWwlpQL.jpg 1x,\n/static/306bb4ace8827b52461381b81e1a5577/3e51d/rNWwlpQL.jpg 1.5x,\n/static/306bb4ace8827b52461381b81e1a5577/eee8e/rNWwlpQL.jpg 2x"}}},"authorSlug":"michaelbatnick","score":581,"views":null,"sharedCount":15,"likeCount":551,"sharedContent":null,"parent":{"__typename":"TweetJson","localize":[{"locale":"zh","full_text":"WUT https://t.co/WSn3u179pS","quoted_status_full_text":null,"retweeted_status_full_text":null},{"locale":"zh-Hant","full_text":"WUT https://t.co/WSn3u179pS","quoted_status_full_text":null,"retweeted_status_full_text":null}]}},{"__typename":"SocialMediaPost","id":"TweetPost-1327597383472046081","excerpt":"","slug":"/tweet/1327597383472046081","title":"How I Invest My Money\n\nhttps://t.co/fVv7VyvMly","date":"November 14, 2020","dateISO":"2020-11-14T13:00:56.000Z","datetime":"2020-11-14 13:00","tags":["tweet"],"image":null,"imageAlt":null,"provider":"Twitter","thirdPartyId":"1327597383472046081","url":"https://twitter.com/michaelbatnick/statuses/1327597383472046081","originalUrl":null,"imageRemote":null,"video":null,"channel":null,"channelUrl":null,"author":"Michael Batnick","authorUrl":"https://twitter.com/michaelbatnick","authorImage":{"childImageSharp":{"fixed":{"base64":"data:image/jpeg;base64,/9j/2wBDABALDA4MChAODQ4SERATGCgaGBYWGDEjJR0oOjM9PDkzODdASFxOQERXRTc4UG1RV19iZ2hnPk1xeXBkeFxlZ2P/2wBDARESEhgVGC8aGi9jQjhCY2NjY2NjY2NjY2NjY2NjY2NjY2NjY2NjY2NjY2NjY2NjY2NjY2NjY2NjY2NjY2NjY2P/wgARCAAUABQDASIAAhEBAxEB/8QAGAABAAMBAAAAAAAAAAAAAAAAAAEDBAL/xAAUAQEAAAAAAAAAAAAAAAAAAAAA/9oADAMBAAIQAxAAAAGNuWoucjACsH//xAAbEAADAAIDAAAAAAAAAAAAAAABAgMAIhAREv/aAAgBAQABBQI43FvEgtVVQe8fa1EUKh1//8QAFBEBAAAAAAAAAAAAAAAAAAAAIP/aAAgBAwEBPwEf/8QAFBEBAAAAAAAAAAAAAAAAAAAAIP/aAAgBAgEBPwEf/8QAGxAAAQUBAQAAAAAAAAAAAAAAEQABAhAhUVL/2gAIAQEABj8CWU2yco+q3oUg1f/EAB0QAQADAAIDAQAAAAAAAAAAAAEAESFBURAxgZH/2gAIAQEAAT8hqFWfkA9gzxqmcCpYy67gCxnobK/EQKEcnIBn/9oADAMBAAIAAwAAABAjDzz/xAAUEQEAAAAAAAAAAAAAAAAAAAAg/9oACAEDAQE/EB//xAAUEQEAAAAAAAAAAAAAAAAAAAAg/9oACAECAQE/EB//xAAeEAEAAgEEAwAAAAAAAAAAAAABABEhMUFRcWGx0f/aAAgBAQABPxAkoWVv9SyUZBHR4iZe46GJRPiOawaMqNVepRGj5iT2APBqoT0DBcZjuQDQpP/Z","width":48,"height":48,"src":"/static/306bb4ace8827b52461381b81e1a5577/ffcc9/rNWwlpQL.jpg","srcSet":"/static/306bb4ace8827b52461381b81e1a5577/ffcc9/rNWwlpQL.jpg 1x,\n/static/306bb4ace8827b52461381b81e1a5577/3e51d/rNWwlpQL.jpg 1.5x,\n/static/306bb4ace8827b52461381b81e1a5577/eee8e/rNWwlpQL.jpg 2x"}}},"authorSlug":"michaelbatnick","score":438,"views":null,"sharedCount":26,"likeCount":386,"sharedContent":null,"parent":{"__typename":"TweetJson","localize":[{"locale":"zh","full_text":"我如何投资我的钱\n\nhttps://t.co/fVv7VyvMly","quoted_status_full_text":null,"retweeted_status_full_text":null},{"locale":"zh-Hant","full_text":"我如何投資我的錢\n\nhttps://t.co/fVv7VyvMly","quoted_status_full_text":null,"retweeted_status_full_text":null}]}},{"__typename":"SocialMediaPost","id":"TweetPost-1325792060566286337","excerpt":"","slug":"/tweet/1325792060566286337","title":"Leisure and hospitality stocks are gonna go nuts.\n\nFour seasons total landscaping  upgraded to five seasons. +15% pre market.","date":"November 09, 2020","dateISO":"2020-11-09T13:27:13.000Z","datetime":"2020-11-09 13:27","tags":["tweet"],"image":null,"imageAlt":null,"provider":"Twitter","thirdPartyId":"1325792060566286337","url":"https://twitter.com/michaelbatnick/statuses/1325792060566286337","originalUrl":null,"imageRemote":null,"video":null,"channel":null,"channelUrl":null,"author":"Michael Batnick","authorUrl":"https://twitter.com/michaelbatnick","authorImage":{"childImageSharp":{"fixed":{"base64":"data:image/jpeg;base64,/9j/2wBDABALDA4MChAODQ4SERATGCgaGBYWGDEjJR0oOjM9PDkzODdASFxOQERXRTc4UG1RV19iZ2hnPk1xeXBkeFxlZ2P/2wBDARESEhgVGC8aGi9jQjhCY2NjY2NjY2NjY2NjY2NjY2NjY2NjY2NjY2NjY2NjY2NjY2NjY2NjY2NjY2NjY2NjY2P/wgARCAAUABQDASIAAhEBAxEB/8QAGAABAAMBAAAAAAAAAAAAAAAAAAEDBAL/xAAUAQEAAAAAAAAAAAAAAAAAAAAA/9oADAMBAAIQAxAAAAGNuWoucjACsH//xAAbEAADAAIDAAAAAAAAAAAAAAABAgMAIhAREv/aAAgBAQABBQI43FvEgtVVQe8fa1EUKh1//8QAFBEBAAAAAAAAAAAAAAAAAAAAIP/aAAgBAwEBPwEf/8QAFBEBAAAAAAAAAAAAAAAAAAAAIP/aAAgBAgEBPwEf/8QAGxAAAQUBAQAAAAAAAAAAAAAAEQABAhAhUVL/2gAIAQEABj8CWU2yco+q3oUg1f/EAB0QAQADAAIDAQAAAAAAAAAAAAEAESFBURAxgZH/2gAIAQEAAT8hqFWfkA9gzxqmcCpYy67gCxnobK/EQKEcnIBn/9oADAMBAAIAAwAAABAjDzz/xAAUEQEAAAAAAAAAAAAAAAAAAAAg/9oACAEDAQE/EB//xAAUEQEAAAAAAAAAAAAAAAAAAAAg/9oACAECAQE/EB//xAAeEAEAAgEEAwAAAAAAAAAAAAABABEhMUFRcWGx0f/aAAgBAQABPxAkoWVv9SyUZBHR4iZe46GJRPiOawaMqNVepRGj5iT2APBqoT0DBcZjuQDQpP/Z","width":48,"height":48,"src":"/static/306bb4ace8827b52461381b81e1a5577/ffcc9/rNWwlpQL.jpg","srcSet":"/static/306bb4ace8827b52461381b81e1a5577/ffcc9/rNWwlpQL.jpg 1x,\n/static/306bb4ace8827b52461381b81e1a5577/3e51d/rNWwlpQL.jpg 1.5x,\n/static/306bb4ace8827b52461381b81e1a5577/eee8e/rNWwlpQL.jpg 2x"}}},"authorSlug":"michaelbatnick","score":1044,"views":null,"sharedCount":40,"likeCount":964,"sharedContent":null,"parent":{"__typename":"TweetJson","localize":[{"locale":"zh","full_text":"休闲和酒店类股要疯了。\n\n四季总园林绿化升级为五季。上市前+15%。","quoted_status_full_text":null,"retweeted_status_full_text":null},{"locale":"zh-Hant","full_text":"休閒和酒店類股要瘋了。\n\n四季總園林綠化升級爲五季。上市前+15%。","quoted_status_full_text":null,"retweeted_status_full_text":null}]}}]}},"pageContext":{"basePath":"/","pageType":"tag","tag":"tweet","tagsFilter":{"id":{"glob":"!*Post-1"}},"filter":{"id":{"glob":"!*Post-1"},"tags":{"eq":"tweet"}},"limit":25,"skip":775,"total":779,"totalPages":32,"currentPage":32,"maxWidth":1024,"maxHeight":512,"locale":"en","hrefLang":"en-US","originalPath":"/tags/tweet/page/32","dateFormat":"MM/DD/YYYY"}},"staticQueryHashes":["1239077767","2506312863","2744905544","3025052997","3493603132","3493603132","3513215887","386998304"]}