{"componentChunkName":"component---node-modules-gatsby-theme-buzzing-src-gatsby-theme-timeline-templates-posts-query-js","path":"/tags/stocks/page/61","result":{"data":{"site":{"siteMetadata":{"title":"国外股市热门","description":"用中文浏览国外股票社区里的热门讨论","social":[{"name":"Reddit Stocks","url":"https://www.reddit.com/r/stocks","external":true,"prefetch":null},{"name":"Reddit Investing","url":"https://www.reddit.com/r/investing","external":true,"prefetch":null},{"name":"Charlie Bilello's twitter","url":"https://twitter.com/charliebilello","external":true,"prefetch":null},{"name":"Buzzing","url":"https://www.buzzing.cc/","external":true,"prefetch":null}],"menuLinks":[{"name":"每周精选","url":"/issues","external":null,"prefetch":null}],"localize":[{"locale":"en","title":"Buzzing on Stocks","description":"See popular discussions in foreign stock communities in your native language","social":[{"name":"Reddit","url":"https://www.reddit.com/","external":true,"prefetch":null}],"menuLinks":[{"name":"Weekly Selection","url":"/en/issues","external":null,"prefetch":null}]},{"locale":"zh-Hant","title":"國外股市熱門","description":"用中文瀏覽國外股票社區裡的熱門討論","social":null,"menuLinks":[{"name":"每週精選","url":"/zh-Hant/issues","external":null,"prefetch":null}]}]}},"tagsGroup":{"group":[{"fieldValue":"Bitcoin","totalCount":4},{"fieldValue":"SaveAMC","totalCount":1},{"fieldValue":"bitcoin","totalCount":3},{"fieldValue":"investing","totalCount":768},{"fieldValue":"reddit","totalCount":4647},{"fieldValue":"science","totalCount":1},{"fieldValue":"stocks","totalCount":1509},{"fieldValue":"tweet","totalCount":779},{"fieldValue":"wallstreetbets","totalCount":2370}]},"allBlogPost":{"nodes":[{"__typename":"SocialMediaPost","id":"RedditPost-kbmqmq","excerpt":"According to an article posted on the Chinese Ministry of Commerce website on\nThursday, Wang Weidong, commercial counselor of the Chinese Embassy in Germany,\nmet with Zhang by video on December 9 to exchange views on NIO's current\nsituation and development plans.\n\nThe meeting means that NIO seems to…","slug":"/reddit/r/stocks/comments/kbmqmq/general_manager_of_nio_germany_recently_met_with/","title":"General manager of NIO Germany, recently met with a Chinese diplomat in the European country and introduced NIO's overseas development plans.","date":"December 14, 2020","dateISO":"2020-12-14T11:28:18.000Z","datetime":"2020-12-14 11:28","tags":["stocks","reddit"],"image":null,"imageAlt":null,"provider":"Reddit","thirdPartyId":"kbmqmq","url":"https://www.reddit.com/r/stocks/comments/kbmqmq/general_manager_of_nio_germany_recently_met_with/","originalUrl":"https://www.reddit.com/r/stocks/comments/kbmqmq/general_manager_of_nio_germany_recently_met_with/","imageRemote":null,"video":null,"channel":"stocks","channelUrl":"https://www.reddit.com/r/stocks","author":"tycho_bruhe","authorUrl":"https://www.reddit.com/user/tycho_bruhe","authorImage":null,"authorSlug":"tycho_bruhe","score":943,"views":null,"sharedCount":null,"likeCount":null,"sharedContent":null,"parent":{"__typename":"RedditJson","localize":[{"title":"最近，NIO德国公司总经理会见了中国驻这个欧洲国家的外交官，并介绍了NIO的海外发展计划。","the_new_excerpt":"根据中国商务部网站上发布的一篇文章，\n星期四，中国驻德国大使馆商务参赞王卫东，\n12月9日通过视频会见了张，就NIO目前的情况交换了意见\n形势和发展规划。\n\n这次会议意味着NIO对…来说似乎","locale":"zh"},{"title":"最近，NIO德國公司總經理會見了中國駐這個歐洲國家的外交官，並介紹了NIO的海外發展計劃。","the_new_excerpt":"根據中國商務部網站上發佈的一篇文章，\n星期四，中國駐德國大使館商務參贊王衛東，\n12月9日通過視頻會見了張，就NIO目前的情況交換了意見\n形勢和發展規劃。\n\n這次會議意味着NIO對…來說似乎","locale":"zh-Hant"}]}},{"__typename":"SocialMediaPost","id":"RedditPost-kboh0h","excerpt":"Hi everyone. I’m just trying to get some help understanding the macro-economic\nfactors that could lead to this seemingly impossible situation.\n\nLive Nation is one of the largest live event promoters in the world. They own\nTicketmaster and a slew of live event venues across the world. Due to…","slug":"/reddit/r/stocks/comments/kboh0h/eli5_how_can_the_price_for_live_nation_a_concert/","title":"ELI5 - How can the price for Live Nation, a concert venue and live event promoter, be at or above pre-pandemic levels when revenues are down 95%?","date":"December 14, 2020","dateISO":"2020-12-14T11:28:18.000Z","datetime":"2020-12-14 11:28","tags":["stocks","reddit"],"image":null,"imageAlt":null,"provider":"Reddit","thirdPartyId":"kboh0h","url":"https://www.reddit.com/r/stocks/comments/kboh0h/eli5_how_can_the_price_for_live_nation_a_concert/","originalUrl":"https://www.reddit.com/r/stocks/comments/kboh0h/eli5_how_can_the_price_for_live_nation_a_concert/","imageRemote":null,"video":null,"channel":"stocks","channelUrl":"https://www.reddit.com/r/stocks","author":"purple_kool_aid","authorUrl":"https://www.reddit.com/user/purple_kool_aid","authorImage":null,"authorSlug":"purple_kool_aid","score":407,"views":null,"sharedCount":null,"likeCount":null,"sharedContent":null,"parent":{"__typename":"RedditJson","localize":[{"title":"ELI5-当收入下降95%时，演唱会场地和现场活动推广者Live Nation的价格怎么可能达到或高于大流行前的水平？","the_new_excerpt":"大家好。我只是想寻求一些帮助来理解宏观经济\n可能导致这一看似不可能的情况的因素。\n\nLive Nation是世界上最大的现场活动推广者之一。他们拥有\nTicketmaster和世界各地的许多现场活动场地。由于…","locale":"zh"},{"title":"ELI5-當收入下降95%時，演唱會場地和現場活動推廣者Live Nation的價格怎麼可能達到或高於大流行前的水平？","the_new_excerpt":"大家好。我只是想尋求一些幫助來理解宏觀經濟\n可能導致這一看似不可能的情況的因素。\n\nLive Nation是世界上最大的現場活動推廣者之一。他們擁有\nTicketmaster和世界各地的許多現場活動場地。由於…","locale":"zh-Hant"}]}},{"__typename":"SocialMediaPost","id":"RedditPost-kbpinr","excerpt":"https://www.marketwatch.com/story/electric-vehicle-sales-expected-to-grow-50-in-2021-11607710053\n\nThat’s the view of analysts at Morgan Stanley, who in a note to clients on\nFriday also predicted that global EV penetration would top 4%, rising to 31% by\n2030.\n\nThe year 2021 “is shaping up to be a…","slug":"/reddit/r/stocks/comments/kbpinr/electric_vehicle_sales_expected_to_grow_50_in_2021/","title":"Electric vehicle sales expected to grow 50% in 2021","date":"December 14, 2020","dateISO":"2020-12-14T11:28:18.000Z","datetime":"2020-12-14 11:28","tags":["stocks","reddit"],"image":null,"imageAlt":null,"provider":"Reddit","thirdPartyId":"kbpinr","url":"https://www.reddit.com/r/stocks/comments/kbpinr/electric_vehicle_sales_expected_to_grow_50_in_2021/","originalUrl":"https://www.reddit.com/r/stocks/comments/kbpinr/electric_vehicle_sales_expected_to_grow_50_in_2021/","imageRemote":null,"video":null,"channel":"stocks","channelUrl":"https://www.reddit.com/r/stocks","author":"coolcomfort123","authorUrl":"https://www.reddit.com/user/coolcomfort123","authorImage":null,"authorSlug":"coolcomfort123","score":1437,"views":null,"sharedCount":null,"likeCount":null,"sharedContent":null,"parent":{"__typename":"RedditJson","localize":[{"title":"预计2021年电动汽车销量将增长50%","the_new_excerpt":"https://www.marketwatch.com/story/electric-vehicle-sales-expected-to-grow-50-in-2021-11607710053\n\n这是摩根士丹利(Morgan Stanley)分析师的观点，他们在给客户的一份报告中\n周五还预测，全球电动汽车普及率将超过4%，到2019年将上升到31%\n2030年。\n\n2021年“正在形成一个…","locale":"zh"},{"title":"預計2021年電動汽車銷量將增長50%","the_new_excerpt":"https://www.marketwatch.com/story/electric-vehicle-sales-expected-to-grow-50-in-2021-11607710053\n\n這是摩根士丹利(Morgan Stanley)分析師的觀點，他們在給客戶的一份報告中\n週五還預測，全球電動汽車普及率將超過4%，到2019年將上升到31%\n2030年。\n\n2021年“正在形成一個…","locale":"zh-Hant"}]}},{"__typename":"SocialMediaPost","id":"RedditPost-kbui6l","excerpt":"We have seen about a dozen EV companies this year to go public, but this one is\ndifferent. Most of this companies like Fisker entirely base their valuation on\nprojected revenue estimates and have not a single unit sold and driving out on\nthe streets.\n\nLightning eMotors has delivered more commercial…","slug":"/reddit/r/stocks/comments/kbui6l/new_ev_stock_gik_the_company_that_delivered_more/","title":"New EV stock $GIK - The company that delivered more commercial electric vehicles in the US than Ford and Daimler combined","date":"December 14, 2020","dateISO":"2020-12-14T11:28:18.000Z","datetime":"2020-12-14 11:28","tags":["stocks","reddit"],"image":null,"imageAlt":null,"provider":"Reddit","thirdPartyId":"kbui6l","url":"https://www.reddit.com/r/stocks/comments/kbui6l/new_ev_stock_gik_the_company_that_delivered_more/","originalUrl":"https://www.reddit.com/r/stocks/comments/kbui6l/new_ev_stock_gik_the_company_that_delivered_more/","imageRemote":null,"video":null,"channel":"stocks","channelUrl":"https://www.reddit.com/r/stocks","author":"spacpro","authorUrl":"https://www.reddit.com/user/spacpro","authorImage":null,"authorSlug":"spacpro","score":569,"views":null,"sharedCount":null,"likeCount":null,"sharedContent":null,"parent":{"__typename":"RedditJson","localize":[{"title":"新电动汽车股票$GIK-在美国交付的商用电动汽车比福特和戴姆勒加起来还多","the_new_excerpt":"我们今年已经看到大约12家电动汽车公司上市，但这一家是\n不一样的。像Fisker这样的大多数公司的估值完全基于\n预计收入估计，并且没有一个单位售出和驱赶出去\n街道上。\n\nLightning eMotors提供了更多商业…","locale":"zh"},{"title":"新電動汽車股票$GIK-在美國交付的商用電動汽車比福特和戴姆勒加起來還多","the_new_excerpt":"我們今年已經看到大約12家電動汽車公司上市，但這一家是\n不一樣的。像Fisker這樣的大多數公司的估值完全基於\n預計收入估計，並且沒有一個單位售出和驅趕出去\n街道上。\n\nLightning eMotors提供了更多商業…","locale":"zh-Hant"}]}},{"__typename":"SocialMediaPost","id":"RedditPost-kc5sq5","excerpt":"Subject: S/X Holiday Shutdown\n\nHi Team,\n\nThe SX lines will be shut down for the holidays starting Dec. 24th and returning\nJan. 11th.\n\nWe would like you to take the opportunity to refresh or spend time with your\nfamily, so Tesla will be giving you a full week pay for the week of Jan. 4th.\nThere will…","slug":"/reddit/r/stocks/comments/kc5sq5/tesla_tells_employees_model_s_and_x_production/","title":"Tesla tells employees Model S and X production will shut down for 18 days","date":"December 14, 2020","dateISO":"2020-12-14T11:28:18.000Z","datetime":"2020-12-14 11:28","tags":["stocks","reddit"],"image":null,"imageAlt":null,"provider":"Reddit","thirdPartyId":"kc5sq5","url":"https://www.reddit.com/r/stocks/comments/kc5sq5/tesla_tells_employees_model_s_and_x_production/","originalUrl":"https://www.reddit.com/r/stocks/comments/kc5sq5/tesla_tells_employees_model_s_and_x_production/","imageRemote":null,"video":null,"channel":"stocks","channelUrl":"https://www.reddit.com/r/stocks","author":"Sf766","authorUrl":"https://www.reddit.com/user/Sf766","authorImage":null,"authorSlug":"Sf766","score":1805,"views":null,"sharedCount":null,"likeCount":null,"sharedContent":null,"parent":{"__typename":"RedditJson","localize":[{"title":"特斯拉告诉员工，Model S和X的生产将停产18天","the_new_excerpt":"主题：S/X假日关闭\n\n嗨，队员们，\n\nSX线路将在12月24日开始和返回的假期期间关闭\n1月11日。\n\n我们希望您借此机会更新或花时间与您的\n所以特斯拉将在1月4日的那一周给你整整一周的工资。\n会有…的","locale":"zh"},{"title":"特斯拉告訴員工，Model S和X的生產將停產18天","the_new_excerpt":"主題：S/X假日關閉\n\n嗨，隊員們，\n\nSX線路將在12月24日開始和返回的假期期間關閉\n1月11日。\n\n我們希望您藉此機會更新或花時間與您的\n所以特斯拉將在1月4日的那一週給你整整一週的工資。\n會有…的","locale":"zh-Hant"}]}},{"__typename":"SocialMediaPost","id":"RedditPost-kcekg0","excerpt":"Great news for whoever's long on the psilocybin and psychedelics boom.\n\nhttps://www.cbc.ca/news/canada/london/some-doctors-therapists-get-health-canada-permission-to-use-magic-mushrooms-1.5834485\n\nMMED to the moon baby","slug":"/reddit/r/stocks/comments/kcekg0/health_canada_gives_permission_to_some_doctors/","title":"Health Canada gives permission to some doctors, therapists to use magic mushrooms","date":"December 14, 2020","dateISO":"2020-12-14T11:28:18.000Z","datetime":"2020-12-14 11:28","tags":["stocks","reddit"],"image":null,"imageAlt":null,"provider":"Reddit","thirdPartyId":"kcekg0","url":"https://www.reddit.com/r/stocks/comments/kcekg0/health_canada_gives_permission_to_some_doctors/","originalUrl":"https://www.reddit.com/r/stocks/comments/kcekg0/health_canada_gives_permission_to_some_doctors/","imageRemote":null,"video":null,"channel":"stocks","channelUrl":"https://www.reddit.com/r/stocks","author":"jyeatbvg","authorUrl":"https://www.reddit.com/user/jyeatbvg","authorImage":null,"authorSlug":"jyeatbvg","score":1815,"views":null,"sharedCount":null,"likeCount":null,"sharedContent":null,"parent":{"__typename":"RedditJson","localize":[{"title":"加拿大卫生部允许一些医生和治疗师使用神奇蘑菇","the_new_excerpt":"对热衷于裸盖菇素和迷幻剂的人来说这是个好消息。\n\nhttps://www.cbc.ca/news/canada/london/some-doctors-therapists-get-health-canada-permission-to-use-magic-mushrooms-1.5834485\n\nMMED登月宝贝","locale":"zh"},{"title":"加拿大衛生部允許一些醫生和治療師使用神奇蘑菇","the_new_excerpt":"對熱衷於裸蓋菇素和迷幻劑的人來說這是個好消息。\n\nhttps://www.cbc.ca/news/canada/london/some-doctors-therapists-get-health-canada-permission-to-use-magic-mushrooms-1.5834485\n\nMMED登月寶貝","locale":"zh-Hant"}]}},{"__typename":"SocialMediaPost","id":"RedditPost-k8j66f","excerpt":"Palantir won a 3 year, $44M contract to help the FDA.\n\nThis is great news for the company since it reaffirms their software\ncapabilities in the healthcare sector. They currently work with Merck KGaA and I\nsuspect more healthcare companies will become customers with Palantir over the\nnext year or…","slug":"/reddit/r/stocks/comments/k8j66f/pltr_wins_fda_contract/","title":"$PLTR wins FDA Contract","date":"December 14, 2020","dateISO":"2020-12-14T11:28:17.000Z","datetime":"2020-12-14 11:28","tags":["stocks","reddit"],"image":null,"imageAlt":null,"provider":"Reddit","thirdPartyId":"k8j66f","url":"https://www.reddit.com/r/stocks/comments/k8j66f/pltr_wins_fda_contract/","originalUrl":"https://www.reddit.com/r/stocks/comments/k8j66f/pltr_wins_fda_contract/","imageRemote":null,"video":null,"channel":"stocks","channelUrl":"https://www.reddit.com/r/stocks","author":"infinity884422","authorUrl":"https://www.reddit.com/user/infinity884422","authorImage":null,"authorSlug":"infinity884422","score":1782,"views":null,"sharedCount":null,"likeCount":null,"sharedContent":null,"parent":{"__typename":"RedditJson","localize":[{"title":"$PLTR赢得FDA合同","the_new_excerpt":"Palantir赢得了一份为期3年、价值4400万美元的合同，帮助FDA。\n\n这对公司来说是个好消息，因为它重申了他们的软件\n医疗保健部门的能力。他们目前与默克KGaA和我合作\n怀疑会有更多的医疗保健公司成为Palantir的客户\n明年或…","locale":"zh"},{"title":"$PLTR贏得FDA合同","the_new_excerpt":"Palantir贏得了一份爲期3年、價值4400萬美元的合同，幫助FDA。\n\n這對公司來說是個好消息，因爲它重申了他們的軟件\n醫療保健部門的能力。他們目前與默克KGaA和我合作\n懷疑會有更多的醫療保健公司成爲Palantir的客戶\n明年或…","locale":"zh-Hant"}]}},{"__typename":"SocialMediaPost","id":"RedditPost-k9sfem","excerpt":"https://www.thestreet.com/investing/tesla-trading-at-650-gets-90-price-target-from-jp-morgan\n\n\n\n> JPMorgan analyst Ryan Brinkman has told clients not to increase their holdings\n> in Tesla to approximate its weight in the S&P 500 ahead of its inclusion to\n> the benchmark on December 21.","slug":"/reddit/r/stocks/comments/k9sfem/tesla_trading_at_650_gets_90_price_target_from/","title":"Tesla, Trading at $650, Gets $90 Price Target From JPMorgan","date":"December 14, 2020","dateISO":"2020-12-14T11:28:17.000Z","datetime":"2020-12-14 11:28","tags":["stocks","reddit"],"image":null,"imageAlt":null,"provider":"Reddit","thirdPartyId":"k9sfem","url":"https://www.reddit.com/r/stocks/comments/k9sfem/tesla_trading_at_650_gets_90_price_target_from/","originalUrl":"https://www.reddit.com/r/stocks/comments/k9sfem/tesla_trading_at_650_gets_90_price_target_from/","imageRemote":null,"video":null,"channel":"stocks","channelUrl":"https://www.reddit.com/r/stocks","author":"thatshopifyguy","authorUrl":"https://www.reddit.com/user/thatshopifyguy","authorImage":null,"authorSlug":"thatshopifyguy","score":2280,"views":null,"sharedCount":null,"likeCount":null,"sharedContent":null,"parent":{"__typename":"RedditJson","localize":[{"title":"特斯拉，交易价格650美元，从摩根大通获得90美元的目标价","the_new_excerpt":"https://www.thestreet.com/investing/tesla-trading-at-650-gets-90-price-target-from-jp-morgan\n\n\n\n>摩根大通分析师Ryan Brinkman告诉客户不要增持\n>在特斯拉，以接近其在标准普尔500指数中的权重，然后将其纳入\n>12月21日的基准。","locale":"zh"},{"title":"特斯拉，交易價格650美元，從摩根大通獲得90美元的目標價","the_new_excerpt":"https://www.thestreet.com/investing/tesla-trading-at-650-gets-90-price-target-from-jp-morgan\n\n\n\n>摩根大通分析師Ryan Brinkman告訴客戶不要增持\n>在特斯拉，以接近其在標準普爾500指數中的權重，然後將其納入\n>12月21日的基準。","locale":"zh-Hant"}]}},{"__typename":"SocialMediaPost","id":"RedditPost-kagdre","excerpt":"You're a complete and utter fool. Let's take a look at the issues:\n\n1) No moat at all. Sure they have 50% market share but there are competitors.\nThey're a delivery service - anyone can do what they do. Not only does this pose\na risk to market share, but it poses a huge risk to the already thin…","slug":"/reddit/r/stocks/comments/kagdre/if_you_bought_doordash_at_180/","title":"If you bought DoorDash at $180...","date":"December 14, 2020","dateISO":"2020-12-14T11:28:17.000Z","datetime":"2020-12-14 11:28","tags":["stocks","reddit"],"image":null,"imageAlt":null,"provider":"Reddit","thirdPartyId":"kagdre","url":"https://www.reddit.com/r/stocks/comments/kagdre/if_you_bought_doordash_at_180/","originalUrl":"https://www.reddit.com/r/stocks/comments/kagdre/if_you_bought_doordash_at_180/","imageRemote":null,"video":null,"channel":"stocks","channelUrl":"https://www.reddit.com/r/stocks","author":"SirGasleak","authorUrl":"https://www.reddit.com/user/SirGasleak","authorImage":null,"authorSlug":"SirGasleak","score":4034,"views":null,"sharedCount":null,"likeCount":null,"sharedContent":null,"parent":{"__typename":"RedditJson","localize":[{"title":"如果你花180美元买了DoorDash.","the_new_excerpt":"你是个彻头彻尾的傻瓜。让我们来看看这些问题：\n\n1)没有护城河。当然，他们有50%的市场份额，但也有竞争对手。\n他们是送货服务-任何人都可以做他们做的事情。这个姿势不仅是\n这是对市场份额的风险，但对已经很薄的…构成了巨大的风险","locale":"zh"},{"title":"如果你花180美元買了DoorDash.","the_new_excerpt":"你是個徹頭徹尾的傻瓜。讓我們來看看這些問題：\n\n1)沒有護城河。當然，他們有50%的市場份額，但也有競爭對手。\n他們是送貨服務-任何人都可以做他們做的事情。這個姿勢不僅是\n這是對市場份額的風險，但對已經很薄的…構成了巨大的風險","locale":"zh-Hant"}]}}]}},"pageContext":{"basePath":"/","pageType":"tag","tag":"stocks","tagsFilter":{"id":{"glob":"!*Post-1"}},"filter":{"id":{"glob":"!*Post-1"},"tags":{"eq":"stocks"}},"limit":25,"skip":1500,"total":1509,"totalPages":61,"currentPage":61,"maxWidth":1024,"maxHeight":512,"locale":"zh","hrefLang":"zh-Hans","originalPath":"/tags/stocks/page/61","dateFormat":"YYYY-MM-DD"}},"staticQueryHashes":["1239077767","2506312863","2744905544","3025052997","3493603132","3493603132","3513215887","386998304"]}